{
    "_links": {
        "self": {
            "href": "http:\/\/default\/admin\/structure\/menu\/item\/26\/edit?_format=hal_json"
        },
        "type": {
            "href": "http:\/\/drupal.org\/rest\/type\/menu_link_content\/menu_link_content"
        }
    },
    "id": [
        {
            "value": 26
        }
    ],
    "uuid": [
        {
            "value": "dca327c4-b102-4d63-a5da-e2053215206b"
        }
    ],
    "langcode": [
        {
            "value": "en",
            "lang": "en"
        }
    ],
    "bundle": [
        {
            "value": "menu_link_content"
        }
    ],
    "title": [
        {
            "value": "Freight Logistics",
            "lang": "en"
        }
    ],
    "menu_name": [
        {
            "value": "footer"
        }
    ],
    "link": [
        {
            "uri": "internal:\/",
            "title": "",
            "options": []
        }
    ],
    "external": [
        {
            "value": false
        }
    ],
    "rediscover": [
        {
            "value": true
        }
    ],
    "weight": [
        {
            "value": -47
        }
    ],
    "expanded": [
        {
            "value": false
        }
    ],
    "enabled": [
        {
            "value": true
        }
    ],
    "parent": [
        {
            "value": "menu_link_content:fde319bf-af50-4f67-b860-c2f11d735743"
        }
    ],
    "changed": [
        {
            "value": "2018-06-26T09:11:22+00:00",
            "lang": "en",
            "format": "Y-m-d\\TH:i:sP"
        }
    ],
    "default_langcode": [
        {
            "value": true,
            "lang": "en"
        }
    ]
}